{
  "API_KEYS":{
    "KEY_IN_USE": "sk_test_a3861ba4c8e6b83a4c40d874d60ff196d37295ac",
    "TEST_SECRET_KEY": "sk_test_a3861ba4c8e6b83a4c40d874d60ff196d37295ac",
    "TEST_PUBLIC_KEY": "pk_test_ab02f7ea52c111b6418be015c5d675a2204bc456",
    "LIVE_SECRET_KEY": "sk_live_b526aaf25650cea8ddf97852650ad385c879fe9c",
    "LIVE_PUBLIC_KEY": "pk_live_c3f2955504f08f6700e2569fd69382620c25ae56"
  }
}